[
    {
        "id": "nikeshoes001",
        "name": "Nike Air",
        "stats": {
            "fabric": "nylon",
            "weight_size_10": 0.5
        },
        "colors": [
            {
                "id": "nike_normal",
                "name": "normal",
                "texture": "diffuse.png",
                "color": "#fda707"
            },
            {
                "id": "nike_red",
                "name": "Red",
                "texture": "diffuse_red.png",
                "color": "#ff0000"
            },
            {
                "id": "nike_green",
                "name": "Green",
                "texture": "diffuse_green.png",
                "color": "#00ff00"
            },
            {
                "id": "nike_blue",
                "name": "Blue",
                "texture": "diffuse_blue.png",
                "color": "#0000ff"
            }
        ],
        "model_path": "/models/nike",
        "model": "model.gltf",
        "texture_path": "/textures/nike",
        "normal": "normal.png",
        "image": "/images/nike.png"
    },
    {
        "id": "adidasshoes001",
        "name": "Adidas Runner",
        "stats": {
            "fabric": "leather",
            "weight_size_10": 0.6
        },
        "colors": [
            {
                "id": "adidas_normal",
                "name": "normal",
                "texture": "diffuse.png",
                "color": "#602a3d"
            },
            {
                "id": "adidas_red",
                "name": "red",
                "texture": "diffuse_red.png",
                "color": "#ff0000"
            },
            {
                "id": "adidas_green",
                "name": "green",
                "texture": "diffuse_green.png",
                "color": "#00ff00"
            },
            {
                "id": "adidas_blue",
                "name": "blue",
                "texture": "diffuse_blue.png",
                "color": "#0000ff"
            }
        ],
        "model_path": "/models/adidas",
        "model": "model.gltf",
        "texture_path": "/textures/adidas",
        "normal": null,
        "image": "/images/adidas.png"
    }
]